R for NYC Housing Data Analysis
…
Now lets take a look at this new dataframe that weve imported. You can print the dataframe to get a simple preview.

In R when you run code with just an object it is printed to the console the same as if the print() function was used.

watchlist_bldgs

# A tibble: 452 x 8
   landlord    address   units violations number street borough zip  
   <chr>       <chr>     <int>      <int> <chr>  <chr>  <chr>   <chr>
 1 Jonathan C 5416 4 A    16         62 5416   4 AVE BROOKL 11220
 2 Jonathan C 5422 4 A    21         78 5422   4 AVE BROOKL 11220
 3 Jonathan C 314 57 S    17         70 314    57 ST BROOKL 11220
 4 Jonathan C 372 BALT     8         76 372    BALTI BROOKL 11201
 5 Jonathan C 166 BLEE     6         41 166    BLEEC BROOKL 11221
 6 Jonathan C 590 BUSH     4         55 590    BUSHW BROOKL 11206
 7 Jonathan C 165 HOWA     8         39 165    HOWAR BROOKL 11233
 8 Jonathan C 208 HOYT     3          9 208    HOYT  BROOKL 11217
 9 Jonathan C 203 HULL     6        143 203    HULL  BROOKL 11233
10 Jonathan C 318 HUMB     7        102 318    HUMBO BROOKL 11211
# ... with 442 more rows
…
Every one of these functions takes a dataframe as the first argument and returns an altered version of that dataframe.

Inside of these functions columns are referred to with just their names without quotes.

Because we are not assigning the resulting modified dataset to an object the result is simply printed without being saved anywhere

filter()

Use filter() find rows/cases where conditions are true. Rows where the condition evaluates to NA are dropped.

bk_bldgs <- filter(watchlist_bldgs, borough == "BROOKLYN")

bk_bldgs

# A tibble: 256 x 8
   landlord    address   units violations number street borough zip  
   <chr>       <chr>     <int>      <int> <chr>  <chr>  <chr>   <chr>
 1 Jonathan C 5416 4 A    16         62 5416   4 AVE BROOKL 11220
 2 Jonathan C 5422 4 A    21         78 5422   4 AVE BROOKL 11220
 3 Jonathan C 314 57 S    17         70 314    57 ST BROOKL 11220
 4 Jonathan C 372 BALT     8         76 372    BALTI BROOKL 11201
 5 Jonathan C 166 BLEE     6         41 166    BLEEC BROOKL 11221
 6 Jonathan C 590 BUSH     4         55 590    BUSHW BROOKL 11206
 7 Jonathan C 165 HOWA     8         39 165    HOWAR BROOKL 11233
 8 Jonathan C 208 HOYT     3          9 208    HOYT  BROOKL 11217
 9 Jonathan C 203 HULL     6        143 203    HULL  BROOKL 11233
10 Jonathan C 318 HUMB     7        102 318    HUMBO BROOKL 11211
# ... with 246 more rows
…
select()

Use select() to keep or drop columns. You can either specify a set of variables to keep by listing them, or specify columns to be dropped with -.

If we dont assign the resulting of a function to an object the result is simply printed but not saved anywhere.

select(watchlist_bldgs, landlord, borough, units)

# A tibble: 452 x 3
   landlord                              borough  units
   <chr>                                 <chr>    <int>
 1 Jonathan Cohen-Silvershore Properties BROOKLYN    16
 2 Jonathan Cohen-Silvershore Properties BROOKLYN    21
 3 Jonathan Cohen-Silvershore Properties BROOKLYN    17
 4 Jonathan Cohen-Silvershore Properties BROOKLYN     8
 5 Jonathan Cohen-Silvershore Properties BROOKLYN     6
 6 Jonathan Cohen-Silvershore Properties BROOKLYN     4
 7 Jonathan Cohen-Silvershore Properties BROOKLYN     8
 8 Jonathan Cohen-Silvershore Properties BROOKLYN     3
 9 Jonathan Cohen-Silvershore Properties BROOKLYN     6
10 Jonathan Cohen-Silvershore Properties BROOKLYN     7
# ... with 442 more rows

select(watchlist_bldgs, -landlord)

# A tibble: 452 x 7
   address            units violations number street    borough zip  
   <chr>              <int>      <int> <chr>  <chr>     <chr>   <chr>
 1 5416 4 AVENUE, BR    16         62 5416   4 AVENUE  BROOKL 11220
 2 5422 4 AVENUE, BR    21         78 5422   4 AVENUE  BROOKL 11220
 3 314 57 STREET, BR    17         70 314    57 STREET BROOKL 11220
 4 372 BALTIC STREET     8         76 372    BALTIC S BROOKL 11201
 5 166 BLEECKER STRE     6         41 166    BLEECKER BROOKL 11221
 6 590 BUSHWICK AVEN     4         55 590    BUSHWICK BROOKL 11206
 7 165 HOWARD AVENUE     8         39 165    HOWARD A BROOKL 11233
 8 208 HOYT STREET,      3          9 208    HOYT STR BROOKL 11217
 9 203 HULL STREET,      6        143 203    HULL STR BROOKL 11233
10 318 HUMBOLDT STRE     7        102 318    HUMBOLDT BROOKL 11211
# ... with 442 more rows

You can rename the columns that you are selecting within select(), or use rename() which keeps all columns.

select(watchlist_bldgs, borough_name = borough)

# A tibble: 452 x 1
   borough_name
   <chr>       
 1 BROOKLYN    
 2 BROOKLYN    
 3 BROOKLYN    
 4 BROOKLYN    
 5 BROOKLYN    
 6 BROOKLYN    
 7 BROOKLYN    
 8 BROOKLYN    
 9 BROOKLYN    
10 BROOKLYN    
# ... with 442 more rows

rename(watchlist_bldgs, landlord_name = landlord)

# A tibble: 452 x 8
   landlord_name address units violations number street borough zip  
   <chr>         <chr>   <int>      <int> <chr>  <chr>  <chr>   <chr>
 1 Jonathan Coh 5416 4    16         62 5416   4 AVE BROOKL 11220
 2 Jonathan Coh 5422 4    21         78 5422   4 AVE BROOKL 11220
 3 Jonathan Coh 314 57    17         70 314    57 ST BROOKL 11220
 4 Jonathan Coh 372 BA     8         76 372    BALTI BROOKL 11201
 5 Jonathan Coh 166 BL     6         41 166    BLEEC BROOKL 11221
 6 Jonathan Coh 590 BU     4         55 590    BUSHW BROOKL 11206
 7 Jonathan Coh 165 HO     8         39 165    HOWAR BROOKL 11233
 8 Jonathan Coh 208 HO     3          9 208    HOYT  BROOKL 11217
 9 Jonathan Coh 203 HU     6        143 203    HULL  BROOKL 11233
10 Jonathan Coh 318 HU     7        102 318    HUMBO BROOKL 11211
# ... with 442 more rows

mutate()

Use mutate() to add new columns to a dataset. mutate() keeps all the existing columns and adds new one to the end of the dataset, and the variant transmute() creates new columns but keeps only the new ones.

mutate(watchlist_bldgs, landlord_lower = str_to_lower(landlord))

# A tibble: 452 x 9
   landlord address units violations number street borough zip  
   <chr>    <chr>   <int>      <int> <chr>  <chr>  <chr>   <chr>
 1 Jonatha 5416 4    16         62 5416   4 AVE BROOKL 11220
 2 Jonatha 5422 4    21         78 5422   4 AVE BROOKL 11220
 3 Jonatha 314 57    17         70 314    57 ST BROOKL 11220
 4 Jonatha 372 BA     8         76 372    BALTI BROOKL 11201
 5 Jonatha 166 BL     6         41 166    BLEEC BROOKL 11221
 6 Jonatha 590 BU     4         55 590    BUSHW BROOKL 11206
 7 Jonatha 165 HO     8         39 165    HOWAR BROOKL 11233
 8 Jonatha 208 HO     3          9 208    HOYT  BROOKL 11217
 9 Jonatha 203 HU     6        143 203    HULL  BROOKL 11233
10 Jonatha 318 HU     7        102 318    HUMBO BROOKL 11211
# ... with 442 more rows, and 1 more variable: landlord_lower <chr>

transmute(watchlist_bldgs, violations_per_unit = violations / units)

# A tibble: 452 x 1
   violations_per_unit
                 <dbl>
 1                3.88
 2                3.71
 3                4.12
 4                9.5 
 5                6.83
 6               13.8 
 7                4.88
 8                3   
 9               23.8 
10               14.6 
# ... with 442 more rows

arrange()

Use arrange() to add order the rows in your dataset by the values of one or more columns. Be default they will be in ascending order, and you can use desc() for descending order.

arrange(watchlist_bldgs, landlord, desc(units))

# A tibble: 452 x 8
   landlord  address    units violations number street  borough zip  
   <chr>     <chr>      <int>      <int> <chr>  <chr>   <chr>   <chr>
 1 ADAM STR 150 WEST     31         92 150    WEST 1 BRONX   10468
 2 ADAM STR 19 EAST 1    25        105 19     EAST 1 MANHAT 10035
 3 ADAM STR 611 WEST     22         78 611    WEST 1 MANHAT 10031
 4 ADAM STR 535 EDGEC    21         96 535    EDGECO MANHAT 10032
 5 ADAM STR 480 CONVE    15         76 480    CONVEN MANHAT 10031
 6 ADAM STR 616 EAST     13         62 616    EAST 1 BRONX   10458
 7 ADAM STR 2372 ARTH    12         47 2372   ARTHUR BRONX   10458
 8 ADAM STR 2550 CRES    11         67 2550   CRESTO BRONX   10468
 9 ADAM STR 293 PLEAS    10         49 293    PLEASA MANHAT 10029
10 ADAM STR 2405 BEAU     9         33 2405   BEAUMO BRONX   10458
# ... with 442 more rows
…
bk_landlords

# A tibble: 53 x 6
   landlord_name buildings total_units avg_bldg_size total_viol
   <chr>             <int>       <int>         <dbl>      <int>
 1 Jonathan Coh        18         149          8.28        974
 2 Meir Fried           17         125          7.35        690
 3 Deodat Lowtan        14          80          5.71        565
 4 Cheryl Ighod        11          68          6.18        413
 5 Joel Kohn            10          60          6           312
 6 Iskyo Aronov          9          37          4.11        495
 7 Yosef Emergi          9          46          5.11        528
 8 Chaim Schwar         8          39          4.88        361
 9 Isaac Schwar         8         110         13.8         510
10 Jacob Rubin           8          52          6.5         349
# ... with 43 more rows, and 1 more variable: avg_bldg_viol <dbl>
…
geo_info <- watchlist_bldgs %>% 
  geo_address_data(number, street, borough, zip) %>% 
  select(
    bbl, 
    bin = buildingIdentificationNumber, 
    tract_2010 = censusTract2010,
    cd = communityDistrict,
    nta,
    lat = latitudeInternalLabel,
    lng = longitudeInternalLabel
  )

geo_info

# A tibble: 452 x 7
   bbl        bin     tract_2010 cd    nta     lat   lng
   <chr>      <chr>   <chr>      <chr> <chr> <dbl> <dbl>
 1 3008220039 3014544 "  76  "   307   BK32   40.6 -74.0
 2 3008220041 3014545 "  76  "   307   BK32   40.6 -74.0
 3 3008460011 3015608 "  74  "   307   BK32   40.6 -74.0
 4 3004030030 3006430 "  69  "   306   BK38   40.7 -74.0
 5 3033060024 3075649 " 419  "   304   BK78   40.7 -73.9
 6 3031500031 3071890 " 389  "   304   BK78   40.7 -73.9
 7 3015050001 3040558 " 377  "   303   BK35   40.7 -73.9
 8 3004030037 3006432 "  69  "   306   BK38   40.7 -74.0
 9 3015340038 3041728 " 369  "   316   BK79   40.7 -73.9
10 3027780003 3069286 " 495  "   301   BK90   40.7 -73.9
# ... with 442 more rows

Because the resulting dataframe is the exact same size and order as our input dataset we can simply bind the two datasets together side-by-side with dplyrs bind_cols().

watchlist_bldgs_geos <- bind_cols(watchlist_bldgs, geo_info)

watchlist_bldgs_geos

# A tibble: 452 x 15
   landlord address units violations number street borough zip   bbl  
   <chr>    <chr>   <int>      <int> <chr>  <chr>  <chr>   <chr> <chr>
 1 Jonatha 5416 4    16         62 5416   4 AVE BROOKL 11220 3008
 2 Jonatha 5422 4    21         78 5422   4 AVE BROOKL 11220 3008
 3 Jonatha 314 57    17         70 314    57 ST BROOKL 11220 3008
 4 Jonatha 372 BA     8         76 372    BALTI BROOKL 11201 3004
 5 Jonatha 166 BL     6         41 166    BLEEC BROOKL 11221 3033
 6 Jonatha 590 BU     4         55 590    BUSHW BROOKL 11206 3031
 7 Jonatha 165 HO     8         39 165    HOWAR BROOKL 11233 3015
 8 Jonatha 208 HO     3          9 208    HOYT  BROOKL 11217 3004
 9 Jonatha 203 HU     6        143 203    HULL  BROOKL 11233 3015
10 Jonatha 318 HU     7        102 318    HUMBO BROOKL 11211 3027
# ... with 442 more rows, and 6 more variables: bin <chr>,
#   tract_2010 <chr>, cd <chr>, nta <chr>, lat <dbl>, 
…
Here well just use st_as_sf() to convert our data into a spatial sf-dataframe by creating point geometries from the latitude and longitude coordinates we got from Geoclient, and because we are working with lat/lng well set the coordinate reference system (crs) to 4326. Now when we print the dataframe you see some additional metadata.

library(sf)

watchlist_bldgs_spatial <- st_as_sf(watchlist_bldgs_geos_heat, coords = c("lng", "lat"), crs = 4326)

watchlist_bldgs_spatial

Simple feature collection with 117 features and 14 fields
geometry type:  POINT
dimension:      XY
bbox:           xmin: -74.08035 ymin: 40.59765 xmax: -73.79844 ymax: 40.89073
epsg (SRID):    4326
proj4string:    +proj=longlat +datum=WGS84 +no_defs
# A tibble: 117 x 15
   landlord address units violations number street borough zip   bbl  
   <chr>    <chr>   <int>      <int> <chr>  <chr>  <chr>   <chr> <chr>
 1 Jonatha 5416 4    16         62 5416   4 AVE BROOKL 11220 3008
 2 Jonatha 5422 4    21         78 5422   4 AVE BROOKL 11220 3008
 3 Jonatha 166 BL     6         41 166    BLEEC BROOKL 11221 3033
 4 Jonatha 590 BU     4         55 590    BUSHW BROOKL 11206 3031
 5 Jonatha 203 HU     6        143 203    HULL  BROOKL 11233 3015
 6 Jonatha 196 KI     6         19 196    KINGS BROOKL 11222 3026
 7 Jonatha 20 MEN     6         51 20     MENAH BROOKL 11221 3033
 8 Jonatha 321 ME     6         23 321    MENAH BROOKL 11237 3033
 9 Jonatha 234 SC     6         44 234    SCHEN BROOKL 11213 3013
10 Jonatha 128 SU     6         22 128    SUMPT BROOKL 11233 3015
# ... with 107 more rows, and 6 more variables: bin <chr>,
#   tract_2010 <chr>, cd <chr>, nta <chr>, heat_viols <S3:
#   integer64>, 
…
